Izvajanje test-G
  Log datoteka: test-G.log
  Izhod programa: test-G.out
  Ukazna vrstica: ./Naloga2 psext /home/test/tests/proc-test 30973
  Izhodni status: 0
  Realni cas izvajanja: 4
  Uporabniski cas izvajanja: 1
  Sistemski cas izvajanja: 3
  Procesorski cas izvajanja: 4
Preverjanje test-G
  Izhodni status: ok
  Standardni izhod: err
  Tocke: 0
