Izvajanje test-D
  Log datoteka: test-D.log
  Izhod programa: test-D.out
  Ukazna vrstica: ./Naloga3 
  Izhodni status: 0
  Realni cas izvajanja: 13
  Uporabniski cas izvajanja: 0
  Sistemski cas izvajanja: 12
  Procesorski cas izvajanja: 12
Preverjanje test-D
  Izhodni status: ok
  Standardni izhod: err
  Tocke: 0
