Izvajanje test-F
  Log datoteka: test-F.log
  Izhod programa: test-F.out
  Ukazna vrstica: bash Naloga1.sh drevo /home/test/tests/gozd/bukev
  Izhodni status: 0
  Realni cas izvajanja: 19
  Uporabniski cas izvajanja: 6
  Sistemski cas izvajanja: 8
  Procesorski cas izvajanja: 14
Preverjanje test-F
  Izhodni status: ok
  Standardni izhod: ok
  Tocke: 1
