2019-04-25 23:47:02 r3: begin
2019-04-25 23:47:02 r3: executing
2019-04-25 23:47:10 r3: checking
2019-04-25 23:47:10 r3: tocke=4
2019-04-25 23:47:10 r3: end
2019-04-26 00:37:01 r5: begin
2019-04-26 00:37:01 r5: executing
2019-04-26 00:37:10 r5: checking
2019-04-26 00:37:10 r5: tocke=4
2019-04-26 00:37:10 r5: end
2019-04-26 01:06:02 r7: begin
2019-04-26 01:06:02 r7: executing
2019-04-26 01:06:10 r7: checking
2019-04-26 01:06:10 r7: tocke=4
2019-04-26 01:06:10 r7: end
2019-04-26 10:16:02 r9: begin
2019-04-26 10:16:02 r9: executing
2019-04-26 10:16:11 r9: checking
2019-04-26 10:16:11 r9: tocke=6
2019-04-26 10:16:11 r9: end
2019-04-26 10:54:01 r11: begin
2019-04-26 10:54:02 r11: executing
2019-04-26 10:54:10 r11: checking
2019-04-26 10:54:10 r11: tocke=6
2019-04-26 10:54:10 r11: end
2019-04-26 11:33:02 r13: begin
2019-04-26 11:33:02 r13: executing
2019-04-26 11:33:11 r13: checking
2019-04-26 11:33:11 r13: tocke=7
2019-04-26 11:33:11 r13: end
2019-04-26 14:02:02 r15: begin
2019-04-26 14:02:02 r15: executing
2019-04-26 14:02:11 r15: checking
2019-04-26 14:02:12 r15: tocke=8
2019-04-26 14:02:12 r15: end
2019-04-27 21:43:22 r17: begin
2019-04-27 21:43:22 r17: executing
2019-04-27 21:43:31 r17: checking
2019-04-27 21:43:31 r17: tocke=8
2019-04-27 21:43:31 r17: end
2019-04-27 21:52:01 r19: begin
2019-04-27 21:52:01 r19: executing
2019-04-27 21:52:10 r19: checking
2019-04-27 21:52:10 r19: tocke=8
2019-04-27 21:52:10 r19: end
2019-04-27 22:11:19 r21: begin
2019-04-27 22:11:20 r21: executing
2019-04-27 22:11:28 r21: checking
2019-04-27 22:11:28 r21: tocke=9
2019-04-27 22:11:28 r21: end
2019-04-28 09:42:02 r23: begin
2019-04-28 09:42:02 r23: executing
2019-04-28 09:42:11 r23: checking
2019-04-28 09:42:11 r23: tocke=9
2019-04-28 09:42:11 r23: end
